{
    "splashScreen": {
        "mobile": {
            "iphone": {
                "splashImage": null
            },
            "android": {
                "backgroundColor": "354a55"
            },
            "winphone8": {},
            "spa": {},
            "spaip": {},
            "spaan": {},
            "spabb": {},
            "spawinphone8": {},
            "splashImage": "splash.png"
        },
        "tablet": {
            "ipad": {
                "landscape": {
                    "splashImage": "splashland.png"
                },
                "splashImage": "splash.png"
            },
            "android": {},
            "windows8": {},
            "spa": {},
            "spaipad": {},
            "spaandroidtablet": {},
            "spawindowstablet": {}
        },
        "desktop": {
            "desktopweb": {},
            "kiosk": {}
        }
    }
}