{
  "background_color": "ffffffff",
  "bg_type": "one",
  "border_color": "000000ff",
  "border_style": "plain",
  "border_type": 0,
  "border_width": 0,
  "font_color": "000000ff",
  "font_name": "Helvetica",
  "font_size": 100,
  "font_style": "normal",
  "font_weight": "normal",
  "isDefaultSkin": true,
  "kuid": "se0de2bc9a6f48308eee89dfd8e10987",
  "wType": "RadioButtonGroup"
}