{
    "@class": "com.kony.gen.viz.model.component.KVizListBox",
    "DNDConfig": null,
    "__parentReadjusting__": false,
    "_height_": {
        "type": "string",
        "value": "30%"
    },
    "_left_": {
        "type": "string",
        "value": "38dp"
    },
    "_margin_": [
        0,
        0,
        0,
        0
    ],
    "_padding_": [
        0,
        0,
        0,
        0
    ],
    "_placeholder_": "Select Branch",
    "_skin_": "sf0a0d1c3ed24600919e1ea45f63b636",
    "_top_": {
        "type": "string",
        "value": "81dp"
    },
    "_width_": {
        "type": "string",
        "value": "226dp"
    },
    "canUpdateUI": true,
    "containerweight": 100,
    "contentalignment": 5,
    "context": {
        "channel": "mobile",
        "formID": "Login",
        "platform": "android",
        "templateType": "forms",
        "topLevelBox": null
    },
    "groupcells": false,
    "id": "listbranchnumbers",
    "info": null,
    "isvisible": false,
    "kuid": "c05cec7ec5ab4e2cba5b19497fd90a00",
    "masterdata": [],
    "name": "kony.ui.ListBox",
    "parent": "flxBranchContentContainer",
    "pf": "Login",
    "selectedkeys": null,
    "selectedkeyvalue": null,
    "selectedkeyvalues": null,
    "size": 18,
    "viewconfig": {
        "toggleViewConfig": {
            "viewStyle": 0
        }
    },
    "viewtype": 0,
    "wType": "ListBox",
    "zindex": 1
}