{
    "@class": "com.kony.gen.viz.model.component.KVizButton",
    "DNDConfig": null,
    "__valid__": true,
    "_margin_": [
        7,
        1,
        7,
        1
    ],
    "_padding_": [
        4,
        2,
        4,
        2
    ],
    "_skin_": "sf05191ebca845148f8bee78632cf0ed",
    "_text_": "Button",
    "canUpdateUI": true,
    "containerweight": 50,
    "contentalignment": 5,
    "displaytext": true,
    "focusskin": "sf05191ebca845148f8bee78632cf0ed",
    "id": "btnLeft",
    "ide_onClick": "AS_Button_4971bc3fbdb44fcc8d2d35b8d5198fcc",
    "info": null,
    "isvisible": true,
    "kuid": "264163e1c25b4f4bb852ed94f13caa43",
    "margininpixel": false,
    "name": "kony.ui.Button",
    "paddinginpixel": false,
    "parent": "hbxButtonContainer",
    "pf": "PopupConfirmation",
    "wType": "Button"
}