{
    "AS_Form_7e9bb2d8123449118638f96221faacf5": {
        "id": "AS_Form_7e9bb2d8123449118638f96221faacf5",
        "type": "ACTION_SEQUENCE",
        "name": "ActionHomePostShow",
        "params": [{
            "datatype": "collection",
            "name": "eventobject"
        }],
        "contextObj": {
            "name": "Home",
            "type": "forms",
            "platform": "",
            "KUID": "f2a1d30b0ab54c9fb9b5b2a5e66cc500"
        },
        "language": "js",
        "actions": [{
            "id": "INVOKE_FUNCTION___ee17e6e83de1462b9d28b00f4c9a529d",
            "type": "INVOKE_FUNCTION",
            "sequenceKUID": "onPostShowHomeScreen",
            "display": "onPostShowHomeScreen",
            "inputparams": [],
            "parentId": null,
            "callbackType": null
        }]
    }
}