{
    "AS_NamedActions_493adb08cbc3458b9a9952df1976c995": {
        "id": "AS_NamedActions_493adb08cbc3458b9a9952df1976c995",
        "type": "ACTION_SEQUENCE",
        "name": "ActionDismissPopup",
        "language": "js",
        "actions": [{
            "id": "INVOKE_FUNCTION___89f23c127ecd404b80409d4b4bfe11a8",
            "type": "INVOKE_FUNCTION",
            "sequenceKUID": "dismissMessagePopup",
            "display": "dismissMessagePopup",
            "inputparams": [],
            "parentId": null,
            "callbackType": null
        }]
    }
}