{
    "AS_Button_2d3152a0e67b478a99bd61feb046c893": {
        "id": "AS_Button_2d3152a0e67b478a99bd61feb046c893",
        "type": "ACTION_SEQUENCE",
        "params": [{
            "datatype": "collection",
            "name": "eventobject"
        }],
        "contextObj": {
            "name": "PopupConfirmation",
            "type": "popups",
            "platform": "",
            "KUID": "323e099833504053b1e436b0304f0d22"
        },
        "language": "js",
        "actions": [{
            "id": "INVOKE_FUNCTION__ide_onClick_ba139eae177c4ec0893a7e7ba44db725",
            "type": "INVOKE_FUNCTION",
            "sequenceKUID": "onClickEmailsPopupOkButton",
            "display": "onClickEmailsPopupOkButton",
            "inputparams": [],
            "callbackType": null
        }]
    }
}