{
    "DNDConfig": null,
    "__parentReadjusting__": false,
    "_bottom_": {
        "type": "string",
        "value": "0dp"
    },
    "_left_": {
        "type": "number",
        "value": "0"
    },
    "_margin_": [
        0,
        0,
        0,
        0
    ],
    "_orientation_": 6,
    "_padding_": [
        0,
        0,
        0,
        0
    ],
    "_percent_": true,
    "_right_": {
        "type": "number",
        "value": "0"
    },
    "_skin_": "s979f522d35d4550b072158e48ce56df",
    "_top_": {
        "type": "string",
        "value": "0dp"
    },
    "_width_": {
        "type": "string",
        "value": "100%"
    },
    "allboxes": [],
    "autogrowmode": 0,
    "canUpdateUI": true,
    "centerx": {
        "type": "string",
        "value": "-50%"
    },
    "children": [
        "flxBurgerLayer"
    ],
    "clipbounds": true,
    "containerweight": 100,
    "enablescrolling": true,
    "id": "flxSettingsContainer",
    "ide_onTouchEnd": "AS_FlexContainer_84dd514a3fd7473fbaefae2710f6ed2d",
    "ide_onTouchMove": "AS_FlexContainer_87162cfa19c140819ed551ae417095cd",
    "ide_onTouchStart": "AS_FlexContainer_aa40600be4804a44ba413387ba1083ed",
    "info": null,
    "isvisible": true,
    "kuid": "dc9d852fe7894abead689b6b4c1dae13",
    "layouttype": 2,
    "name": "kony.ui.FlexContainer",
    "parent": "Content",
    "pf": "Content",
    "snapgridsize": 10,
    "snaptogrid": true,
    "wType": "FlexContainer",
    "widgetalignment": 1,
    "zindex": 1
}