{
    "@class": "com.kony.gen.viz.model.component.KVizImage2",
    "DNDConfig": null,
    "__parentReadjusting__": false,
    "_base64_": null,
    "_height_": {
        "type": "string",
        "value": "40dp"
    },
    "_left_": {
        "type": "string",
        "value": "4%"
    },
    "_margin_": [
        0,
        0,
        0,
        0
    ],
    "_padding_": [
        0,
        0,
        0,
        0
    ],
    "_skin_": "sfb7a5024e7d499bb46ce112f9da73b0",
    "_src_": "sync_icon.png",
    "_width_": {
        "type": "string",
        "value": "40dp"
    },
    "canUpdateUI": true,
    "centery": {
        "type": "string",
        "value": "50.00%"
    },
    "containerweight": 100,
    "context": {
        "channel": "mobile",
        "formID": "Home",
        "platform": "android",
        "templateType": "forms",
        "topLevelBox": null
    },
    "id": "imgIcon3",
    "imagescalemode": 1,
    "info": null,
    "invokedProperty": "src",
    "isvisible": true,
    "kuid": "6673923534ac4af0a768e0fde9fe2f3b",
    "name": "kony.ui.Image2",
    "parent": "flxContainerThree",
    "pf": "Home",
    "srcType": 1,
    "wType": "Image",
    "widgetalignment": 5
}