{
    "@class": "com.kony.gen.viz.model.component.KVizImage2",
    "DNDConfig": null,
    "__parentReadjusting__": false,
    "_base64_": null,
    "_height_": {
        "type": "string",
        "value": "104dp"
    },
    "_margin_": [
        0,
        0,
        0,
        0
    ],
    "_padding_": [
        0,
        0,
        0,
        0
    ],
    "_skin_": "sfb7a5024e7d499bb46ce112f9da73b0",
    "_src_": "start_work.png",
    "_width_": {
        "type": "string",
        "value": "104dp"
    },
    "canUpdateUI": true,
    "centerx": {
        "type": "string",
        "value": "50%"
    },
    "centery": {
        "type": "string",
        "value": "50%"
    },
    "containerweight": 100,
    "context": {
        "channel": "mobile",
        "formID": "Home",
        "platform": "android",
        "templateType": "forms",
        "topLevelBox": null
    },
    "id": "imgStartWork",
    "imagescalemode": 1,
    "info": null,
    "invokedProperty": "src",
    "isvisible": true,
    "kuid": "707b03639d2c4b3d946633a22e222980",
    "name": "kony.ui.Image2",
    "parent": "flxStartWorkInnerContainer",
    "pf": "Home",
    "srcType": 1,
    "wType": "Image",
    "widgetalignment": 5
}